…
  mutate(
    missval = sum(is.na(Temperaturas))*100/n()
  ) %>%
  summarise(
    Temperaturas = mean(Temperaturas, na.rm = T),
    missval = unique(missval)
  )  %>%
  mutate(
    Temperaturas = ifelse(missval >= 5, NA, Temperaturas),
    DATE = as.Date(sprintf("%1$s-01",DATE)),
    month=str_sub(DATE,6,7)
  ))
```

    ## # A tibble: 1,044 x 4
    ##    DATE       Temperaturas missval month
    ##    <date>            <dbl>   <dbl> <chr>
    ##  1 1928-11-01           NA     100 11   
    ##  2 1928-12-01           NA     100 12   
    ##  3 1929-01-01           NA     100 01   
    ##  4 1929-02-01           NA     100 02   
    ##  5 1929-03-01           NA     100 03   
    ##  6 1929-04-01           NA     100 04   
    ##  7 1929-05-01           NA     100 05   
    ##  8 1929-06-01           NA     100 06   
    ##  9 1929-07-01           NA     100 07   
    ## 10 1929-08-01           NA     100 08   
    ## # ... with 1,034 more rows
…
